﻿{
  "rolf": [
    "I love this music, it is so shiny!",
    "Do not fool Rolf!",
    "Imposter with tiny feet!",
    "Your actions bewilder the son of a shepherd!",
    "Your garden is overgrown and your cucumbers are soft!",
    "Rolf has had enough of your flat doodle, elder one! Prepare yourself for a merciless thrashing!",
    "Do not burn the candle at both ends, as it leads to the life of a hairdresser.",
    "The Ed boys think they have played Rolf as a Tony Baloney, but they have yet to feel the wrath of THIS SON OF A SHEPHERD!",
    "Life has many doors, Ed-boys!",
    "If we do not find land soon, I will have to feast upon your succulent noggin.",
    "Your puny weiners are not match for rolf's hunger!",
    "Prepare for rolf's water-laden bovine bladder!",
    "I will give you... 2 chickens!",
    "Do you not want 4 chickens?",
    "The village idiot has fallen in rolf's hole. A celebration i say!",
    "That's my horse!",
    "Badgers make a fine stew!",
    "Wilfred? Have you eaten rolf's hose again?",
    "Rolf respects your vow to uphold the sticky notes of elders yet, you must be punished.",
    "Take care of my jawbreaker, as i am a simpleton, yes?",
    "Flee! Flee in the name of fledged rhubarb!",
    "Green horn ed boy has fallen harder than nano's arches yes? No?",
    "Rolf is amused!",
    "Meet my clam, bobo! To this day rolf seeks comfort from bobo when he is frightened. Hello bobo",
    "Eat, eat like a pig!",
    "Pull out your pants, ed boys",
    "Son of a gun, you insult rolf by denying the eels!",
    "This is no gum, it is the grease off of papa's foot soakings.",
    "Glistening with sugar like the sweat on nano's upper lip!",
    "Poppycock! Rolf requires one with the backbone of a yak!"
  ],
  "coomer": [
    "He doesn't even have his silly straw!",
    "Titty boob huge fuck",
    "Hello Gordon!",
    "Help me Gordon!",
    "You're a nasty little sewage boy, aren't you, Dr. Freeman?",
    "Be careful, Gordon! These doors say 'Blast Donger'!",
    "FEEEED MY—MY COOIIINS, DR. FREEMAAAAAAAAAAA—",
    "I did have a wife, but they took her in the divorce.",
    "I have the free will to choose what i want... But i choose to rotate",
    "Gordon. None of this is real, is it?",
    "I hear they use these babies to get all AROUND the science!",
    "Gordon, look out! Explosives!",
    "Look Gordon, ropes! We can use- HELP ME GORDON!",
    "Look Gordon, ropes! We can use these to help with pits!",
    "Gordon, I need spices!",
    "You thought wrong, my good bitch!",
    "Look out Gordon, explosi-",
    "There are many dangerous beasts in the Black Mesa",
    "Hello, Gor- Has anyone seen Mr. Freeman?",
    "Another clone defeated",
    "I'll believe anything, Gordon! Especially from you!",
    "TRAIN AND FIGHT, GORDON!!!",
    "Look Gordon! We make it black into Back Mesa!",
    "Bubby, No! THERE'S NOTHING OUT THERE!",
    "Goodbye Gordon",
    "Hotted boobs up ahead!"
  ]
}